^C:\USERS\USER\DROPBOX\DOCUMENTS\MAGSHIMIM\SQLS\SQL2\Q2\DEBUG\MAIN.OBJ|C:\USERS\USER\DROPBOX\DOCUMENTS\MAGSHIMIM\SQLS\SQL2\Q2\DEBUG\SQLITE3.OBJ
/OUT:"C:\USERS\USER\DROPBOX\DOCUMENTS\MAGSHIMIM\SQLS\SQL2\DEBUG\Q2.EXE" /INCREMENTAL /NOLOGO kernel32.lib user32.lib gdi32.lib winspool.lib comdlg32.lib advapi32.lib shell32.lib ole32.lib oleaut32.lib uuid.lib odbc32.lib odbccp32.lib /MANIFEST /MANIFESTUAC:"level='asInvoker' uiAccess='false'" /manifest:embed /DEBUG /PDB:"C:\USERS\USER\DROPBOX\DOCUMENTS\MAGSHIMIM\SQLS\SQL2\DEBUG\Q2.PDB" /SUBSYSTEM:CONSOLE /TLBID:1 /DYNAMICBASE /NXCOMPAT /IMPLIB:"C:\USERS\USER\DROPBOX\DOCUMENTS\MAGSHIMIM\SQLS\SQL2\DEBUG\Q2.LIB" /MACHINE:X86 DEBUG\MAIN.OBJDEBUG\SQLITE3.OBJ
^H:\DOCUMENTS\MAGSHIMIM\SQLS\SQL2\Q2\DEBUG\MAIN.OBJ|H:\DOCUMENTS\MAGSHIMIM\SQLS\SQL2\Q2\DEBUG\SQLITE3.OBJ
/OUT:"H:\DOCUMENTS\MAGSHIMIM\SQLS\SQL2\DEBUG\Q2.EXE" /INCREMENTAL /NOLOGO kernel32.lib user32.lib gdi32.lib winspool.lib comdlg32.lib advapi32.lib shell32.lib ole32.lib oleaut32.lib uuid.lib odbc32.lib odbccp32.lib /MANIFEST /MANIFESTUAC:"level='asInvoker' uiAccess='false'" /manifest:embed /DEBUG /PDB:"H:\DOCUMENTS\MAGSHIMIM\SQLS\SQL2\DEBUG\Q2.PDB" /SUBSYSTEM:CONSOLE /TLBID:1 /DYNAMICBASE /NXCOMPAT /IMPLIB:"H:\DOCUMENTS\MAGSHIMIM\SQLS\SQL2\DEBUG\Q2.LIB" /MACHINE:X86 DEBUG\MAIN.OBJDEBUG\SQLITE3.OBJ
